^E:\STUDIA\SEM4\PAMSI\LAB1\LAB1.2\LAB1.2\MAIN.CPP
/c /ZI /nologo /W3 /WX- /sdl /Od /Oy- /D _MBCS /Gm /EHsc /RTC1 /MDd /GS /fp:precise /Zc:wchar_t /Zc:forScope /Zc:inline /Fo"DEBUG\\" /Fd"DEBUG\VC140.PDB" /Gd /TP /analyze- E:\STUDIA\SEM4\PAMSI\LAB1\LAB1.2\LAB1.2\MAIN.CPP
^E:\STUDIA\SEM4\PAMSI\LAB1\LAB1.2\LAB1.2\STUFF.CPP
/c /ZI /nologo /W3 /WX- /sdl /Od /Oy- /D _MBCS /Gm /EHsc /RTC1 /MDd /GS /fp:precise /Zc:wchar_t /Zc:forScope /Zc:inline /Fo"DEBUG\\" /Fd"DEBUG\VC140.PDB" /Gd /TP /analyze- E:\STUDIA\SEM4\PAMSI\LAB1\LAB1.2\LAB1.2\STUFF.CPP
