^E:\STUDIA\SEM4\PAMSI\LAB1\LAB1.1\LAB1.1\DEBUG\APP.OBJ|E:\STUDIA\SEM4\PAMSI\LAB1\LAB1.1\LAB1.1\DEBUG\CORE_MULTI.OBJ|E:\STUDIA\SEM4\PAMSI\LAB1\LAB1.1\LAB1.1\DEBUG\CORE_SINGLE.OBJ|E:\STUDIA\SEM4\PAMSI\LAB1\LAB1.1\LAB1.1\DEBUG\DISPLAYER.OBJ|E:\STUDIA\SEM4\PAMSI\LAB1\LAB1.1\LAB1.1\DEBUG\MAIN.OBJ
C:\WINDOWS\GLOBALIZATION\SORTING\SORTDEFAULT.NLS
C:\WINDOWS\SYSWOW64\NTDLL.DLL
C:\WINDOWS\SYSWOW64\KERNELBASE.DLL
C:\WINDOWS\SYSTEM32\FLTLIB.DLL
C:\WINDOWS\SYSWOW64\KERNEL32.DLL
C:\WINDOWS\SYSWOW64\OLE32.DLL
C:\WINDOWS\SYSWOW64\GDI32.DLL
C:\WINDOWS\SYSWOW64\USER32.DLL
C:\WINDOWS\SYSWOW64\SHELL32.DLL
C:\PROGRAM FILES (X86)\WINDOWS KITS\8.1\LIB\WINV6.3\UM\X86\KERNEL32.LIB
C:\PROGRAM FILES (X86)\WINDOWS KITS\8.1\LIB\WINV6.3\UM\X86\USER32.LIB
C:\PROGRAM FILES (X86)\WINDOWS KITS\8.1\LIB\WINV6.3\UM\X86\GDI32.LIB
C:\PROGRAM FILES (X86)\WINDOWS KITS\8.1\LIB\WINV6.3\UM\X86\WINSPOOL.LIB
C:\PROGRAM FILES (X86)\WINDOWS KITS\8.1\LIB\WINV6.3\UM\X86\COMDLG32.LIB
C:\PROGRAM FILES (X86)\WINDOWS KITS\8.1\LIB\WINV6.3\UM\X86\ADVAPI32.LIB
C:\PROGRAM FILES (X86)\WINDOWS KITS\8.1\LIB\WINV6.3\UM\X86\SHELL32.LIB
C:\PROGRAM FILES (X86)\WINDOWS KITS\8.1\LIB\WINV6.3\UM\X86\OLE32.LIB
C:\PROGRAM FILES (X86)\WINDOWS KITS\8.1\LIB\WINV6.3\UM\X86\OLEAUT32.LIB
C:\PROGRAM FILES (X86)\WINDOWS KITS\8.1\LIB\WINV6.3\UM\X86\UUID.LIB
C:\PROGRAM FILES (X86)\WINDOWS KITS\8.1\LIB\WINV6.3\UM\X86\ODBC32.LIB
C:\PROGRAM FILES (X86)\WINDOWS KITS\8.1\LIB\WINV6.3\UM\X86\ODBCCP32.LIB
E:\STUDIA\SEM4\PAMSI\LAB1\LAB1.1\LAB1.1\DEBUG\APP.OBJ
E:\STUDIA\SEM4\PAMSI\LAB1\LAB1.1\LAB1.1\DEBUG\CORE_MULTI.OBJ
E:\STUDIA\SEM4\PAMSI\LAB1\LAB1.1\LAB1.1\DEBUG\CORE_SINGLE.OBJ
E:\STUDIA\SEM4\PAMSI\LAB1\LAB1.1\LAB1.1\DEBUG\DISPLAYER.OBJ
E:\STUDIA\SEM4\PAMSI\LAB1\LAB1.1\LAB1.1\DEBUG\MAIN.OBJ
C:\WINDOWS\SYSTEM32\TZRES.DLL
D:\PROGRAMY\VISUAL STUDIO 15\VC\LIB\MSVCPRTD.LIB
D:\PROGRAMY\VISUAL STUDIO 15\VC\LIB\MSVCRTD.LIB
D:\PROGRAMY\VISUAL STUDIO 15\VC\LIB\OLDNAMES.LIB
D:\PROGRAMY\VISUAL STUDIO 15\VC\LIB\VCRUNTIMED.LIB
C:\PROGRAM FILES (X86)\WINDOWS KITS\10\LIB\10.0.10240.0\UCRT\X86\UCRTD.LIB
